<?xml version="1.0" encoding="utf-8"?>
<!-- Generator: Adobe Illustrator 22.0.1, SVG Export Plug-In . SVG Version: 6.00 Build 0)  -->
<svg version="1.1" id="Ebene_1" xmlns="http://www.w3.org/2000/svg" xmlns:xlink="http://www.w3.org/1999/xlink" x="0px" y="0px"
	 viewBox="0 0 79.3 163.9" style="enable-background:new 0 0 79.3 163.9;" xml:space="preserve">
<style type="text/css">
	.st0{stroke:#FFFFFF;stroke-linecap:round;stroke-linejoin:round;stroke-miterlimit:10;}
</style>
<path class="st0" d="M-3.3-17.4c-9.7,2.4-23.4,18.2-32,30.7c-12.5,18-4.4,54.7,22.4,70.2s57.6-5.5,59.4-39s-17.7-45-25.7-53
	C16.1-13.3,11.4-21.1-3.3-17.4z"/>
<path class="st0" d="M-22.8,27.2C-35.2,56.9-0.9,73.4,11.1,48.5S-10.4-2.5-22.8,27.2z"/>
</svg>
